milt — Modern Integrated Library for Timeseries
…
4 Forecasting

4.1 The Universal Forecasting Interface

milt uses the same three-step pipeline for every model:

milt_model("<name>")  →  milt_fit(<series>)  →  milt_forecast(horizon = <h>)

Let’s see what models are available:

list_milt_models()

# A tibble: 25 × 6
   name           description multivariate probabilistic covariates multi_series
   <chr>          <chr>       <lgl>        <lgl>         <lgl>      <lgl>       
 1 snaive         "Seasonal … FALSE        TRUE          FALSE      FALSE       
 2 ets            "Exponenti… FALSE        TRUE          FALSE      FALSE       
 3 nbeats         ""          FALSE        FALSE         FALSE      FALSE       
 4 auto_arima     "Automatic… FALSE        TRUE          TRUE       FALSE       
 5 knn            "K-Nearest… FALSE        TRUE          FALSE      FALSE       
 6 svm            "Support V… FALSE        TRUE          FALSE      FALSE       
 7 stl            "STL decom… FALSE        TRUE          FALSE      FALSE       
 8 elastic_net    ""          FALSE        FALSE         FALSE      FALSE       
 9 deepar         ""          FALSE        FALSE         FALSE      FALSE       
10 darts_transfo… ""          FALSE        FALSE         FALSE      FALSE       
# ℹ 15 more rows
…
# Reconcile — forecasts is a named list of MiltForecast objects
reconciled <- milt_reconcile(
  forecasts = list(total = fct_total, region_A = fct_region_a, region_B = fct_region_b),
  S         = S,
  method    = "ols"
)
print(reconciled)

# MiltReconciliation [ols]
# Series: total, region_A, region_B

tibble::as_tibble(reconciled)

# A tibble: 36 × 3
   series     h .mean
   <chr>  <int> <dbl>
 1 total      1  541.
 2 total      2  544.
 3 total      3  547.
 4 total      4  550.
 5 total      5  552.
 6 total      6  555.
 7 total      7  558.
 8 total      8  561.
 9 total      9  564.
10 total     10  566.
# ℹ 26 more rows
…
# Clean up
file.remove(tmp)

[1] TRUE

20 Model Registry

milt has a global model registry. You can inspect it and register your own custom model backends.

# Inspect all registered models
models_tbl <- list_milt_models()
print(models_tbl)

# A tibble: 25 × 6
   name           description multivariate probabilistic covariates multi_series
   <chr>          <chr>       <lgl>        <lgl>         <lgl>      <lgl>       
 1 snaive         "Seasonal … FALSE        TRUE          FALSE      FALSE       
 2 ets            "Exponenti… FALSE        TRUE          FALSE      FALSE       
 3 nbeats         ""          FALSE        FALSE         FALSE      FALSE       
 4 auto_arima     "Automatic… FALSE        TRUE          TRUE       FALSE       
 5 knn            "K-Nearest… FALSE        TRUE          FALSE      FALSE       
 6 svm            "Support V… FALSE        TRUE          FALSE      FALSE       
 7 stl            "STL decom… FALSE        TRUE          FALSE      FALSE       
 8 elastic_net    ""          FALSE        FALSE         FALSE      FALSE       
 9 deepar         ""          FALSE        FALSE         FALSE      FALSE       
10 darts_transfo… ""          FALSE        FALSE         FALSE      FALSE       
# ℹ 15 more rows
…
