…
CRITICAL: The print method must be informative and clean:
```
# A MiltSeries: 144 x 1 [monthly]
# Time range: 1949 Jan — 1960 Dec
# Components: passengers
# Gaps: none
# A tibble: 144 x 2
  time       passengers
  <date>          <dbl>
1 1949-01-01        112
2 1949-02-01        118
3 1949-03-01        132
# ... with 141 more rows
```
…
