…
#> 
#> • Method : expanding
#> • Horizon : 12
#> • Folds : 61
#> 
#> 
#> ── Summary (across folds) 
#> # A tibble: 3 × 5
#>   metric   mean      sd     min     max
#>   <chr>   <dbl>   <dbl>   <dbl>   <dbl>
#> 1 MAE    63.8   22.1    31.2    114    
#> 2 RMSE   78.6   23.8    39.2    135.   
#> 3 MAPE    0.163  0.0547  0.0897   0.303
tibble::as_tibble(bt)
#> # A tibble: 61 × 6
#>    .fold .train_n .test_n  .MAE .RMSE .MAPE
#>    <int>    <int>   <int> <dbl> <dbl> <dbl>
#>  1     1       72      12  55    68.2 0.178
#>  2     2       73      12  47.8  59.5 0.154
#>  3     3       74      12  58.2  67.8 0.189
#>  4     4       75      12  33.3  44.8 0.105
#>  5     5       76      12  35.3  45.4 0.111
#>  6     6       77      12  38.5  46.8 0.121
#>  7     7       78      12  31.2  39.2 0.106
#>  8     8       79      12  61.8  69.5 0.216
#>  9     9       80      12  55.3  60.3 0.186
#> 10    10       81      12  43.4  53.9 0.133
#> # ℹ 51 more rows
…
