…
------------------------------------------------------------------------

## 8. Changepoint detection

``` r
cp <- milt_changepoints(air, method = "pelt", stat = "mean")
print(cp)
#> # MiltChangepoints [pelt]
#> # Series      : 144 obs  1949-01-01 — 1960-12-01
#> # Changepoints: 127# Locations:
#> # A tibble: 127 × 2
#>    index time      
#>    <int> <date>    
#>  1     1 1949-01-01
#>  2     2 1949-02-01
#>  3     4 1949-04-01
#>  4     5 1949-05-01
#>  5     6 1949-06-01
#>  6     8 1949-08-01
#>  7     9 1949-09-01
#>  8    10 1949-10-01
#>  9    11 1949-11-01
#> 10    13 1950-01-01
#> # ℹ 117 more rows
…
