milt Package Overview • milt
…
classical statistical models such as ETS, Auto-ARIMA, Theta, STL,
and TBATS

machine-learning models such as XGBoost, LightGBM, random forest,
elastic net, SVM, and related backends

ensemble workflows

deep-learning backends through torch and
reticulate integrations

Inspect the available registry:

list_milt_models()
#> # A tibble: 25 × 6
#>    name           description multivariate probabilistic covariates multi_series
#>    <chr>          <chr>       <lgl>        <lgl>         <lgl>      <lgl>       
#>  1 snaive         "Seasonal … FALSE        TRUE          FALSE      FALSE       
#>  2 ets            "Exponenti… FALSE        TRUE          FALSE      FALSE       
#>  3 nbeats         ""          FALSE        FALSE         FALSE      FALSE       
#>  4 auto_arima     "Automatic… FALSE        TRUE          TRUE       FALSE       
#>  5 knn            "K-Nearest… FALSE        TRUE          FALSE      FALSE       
#>  6 svm            "Support V… FALSE        TRUE          FALSE      FALSE       
#>  7 stl            "STL decom… FALSE        TRUE          FALSE      FALSE       
#>  8 elastic_net    ""          FALSE        FALSE         FALSE      FALSE       
#>  9 deepar         ""          FALSE        FALSE         FALSE      FALSE       
#> 10 darts_transfo… ""          FALSE        FALSE         FALSE      FALSE       
#> # ℹ 15 more rows
…
detector <- milt_detector("iqr")
anom <- milt_detect(detector, air)
print(anom)
#> # MiltAnomalies [iqr]
#> # Series    : 144 observations  1949-01-01 — 1960-12-01
#> # Anomalies : 0 / 144 (0%)

Changepoint analysis is exposed separately:

cp <- milt_changepoints(air)
print(cp)
#> # MiltChangepoints [pelt]
#> # Series      : 144 obs  1949-01-01 — 1960-12-01
#> # Changepoints: 127# Locations:
#> # A tibble: 127 × 2
#>    index time      
#>    <int> <date>    
#>  1     1 1949-01-01
#>  2     2 1949-02-01
#>  3     4 1949-04-01
#>  4     5 1949-05-01
#>  5     6 1949-06-01
#>  6     8 1949-08-01
#>  7     9 1949-09-01
#>  8    10 1949-10-01
#>  9    11 1949-11-01
#> 10    13 1950-01-01
#> # ℹ 117 more rows
…
